{
    "bool": {
        "borders":              true,
        "alwaysopen":           false,
        "mascot":               false,
        "allowVersionCheck":    true,
        "privateMode":          false
    },

    "style": {
        "heading_font":         "tewi",
        "link_font":            "tewi",
        "heading_font_size":    "10pt",
        "link_font_size":       "10pt",
        "background":           "#151515",
        "foreground":           "#101010",
        "heading_color":        "#385E6B",
        "link_color":           "#DDDDDD",
        "border_color":         "#385E6B",
        "border_width":         "2px",
        "search_color":         "#CACACA",
        "search_bg_color":      "#101010"
    },

    "ext": {
        "images":[              "image1.png",
                                "image2.png",
                                "image3.png"],
        "bottom":               "0",
        "right":                "0",
        "height":               "500px",
        "width":                "400px",
        "opacity":              ".2"
    }
}
